…
``` r
crime =
  crime_trans %>%
 dplyr::select(-state)
```

Check for 2-way interactions between all predictors

``` r
lm.fit = lm(hate_crimes_per_100k_splc ~ (.)^2, data = crime)
lm_fit_df = broom::tidy(lm.fit)
lm_fit_df
```

    ## # A tibble: 29 x 5
    ##    term                                    estimate  std.error statistic p.value
    ##    <chr>                                      <dbl>      <dbl>     <dbl>   <dbl>
    ##  1 (Intercept)                          -447.          3.32e+2   -1.35    0.199 
    ##  2 unemploymentlow                        18.4         1.94e+1    0.947   0.360 
    ##  3 urbanizationlow                        28.7         2.92e+1    0.983   0.342 
    ##  4 median_household_income                -0.00394     1.77e-3   -2.23    0.0427
    ##  5 perc_population_with_high_school_de~  752.          3.96e+2    1.90    0.0786
    ##  6 perc_non_citizen                       83.2         8.58e+2    0.0970  0.924 
    ##  7 gini_index                            862.          6.57e+2    1.31    0.211 
    ##  8 perc_non_white                         59.3         2.03e+2    0.293   0.774 
    ##  9 unemploymentlow:urbanizationlow         0.798       1.05e+0    0.764   0.458 
    ## 10 unemploymentlow:median_household_in~    0.000258    9.72e-5    2.65    0.0188
    ## # ... with 19 more rows
…
